[    {
    "id": 1,
    "question": "Mengapa untuk saat ini hanya membuka untuk brand BMW 30 saja?",
    "paragraph":
      "Some placeholder content for the collapse component. This panel is hidden by default but revealed when the user activates the relevant trigger.",
    "collapse": 0,
    "status": false
  },
  {
    "id": 2,
    "question": "Apakah mobil BMW tua bisa menggunakan jasa ini?",
    "paragraph":
      "Some placeholder content for the collapse component. This panel is hidden by default but revealed when the user activates the relevant trigger.",
    "collapse": 0,
    "status": false
  },
  {
    "id": 3,
    "question":
      "Apakah ada sistem antar jemput mobil ketika ingin mengambil jasa ini?",
    "paragraph":
      "Some placeholder content for the collapse component. This panel is hidden by default but revealed when the user activates the relevant trigger.",
    "collapse": 0,
    "status": false
  }]